Converting a SummarizedExperiment object into a long data.frame — meltAssay • mia
…
    Author

    Sudarshan A. Shetty

    Examples

data(GlobalPatterns)
molten_se <- meltAssay(GlobalPatterns,
                       add_row_data = TRUE,
                       add_col_data = TRUE,
                       abund_values = "counts")
molten_se

#> # A tibble: 499,616 x 17
#>    FeatureID SampleID counts Kingdom Phylum   Class   Order Family Genus Species
#>    <fct>     <fct>     <dbl> <chr>   <chr>    <chr>   <chr> <chr>  <chr> <chr>  
#>  1 549322    CL3           0 Archaea Crenarc… Thermo… NA    NA     NA    NA     
#>  2 549322    CC1           0 Archaea Crenarc… Thermo… NA    NA     NA    NA     
#>  3 549322    SV1           0 Archaea Crenarc… Thermo… NA    NA     NA    NA     
#>  4 549322    M31Fcsw       0 Archaea Crenarc… Thermo… NA    NA     NA    NA     
#>  5 549322    M11Fcsw       0 Archaea Crenarc… Thermo… NA    NA     NA    NA     
#>  6 549322    M31Plmr       0 Archaea Crenarc… Thermo… NA    NA     NA    NA     
#>  7 549322    M11Plmr       0 Archaea Crenarc… Thermo… NA    NA     NA    NA     
#>  8 549322    F21Plmr       0 Archaea Crenarc… Thermo… NA    NA     NA    NA     
#>  9 549322    M31Tong       0 Archaea Crenarc… Thermo… NA    NA     NA    NA     
#> 10 549322    M11Tong       0 Archaea Crenarc… Thermo… NA    NA     NA    NA     
#> # … with 499,606 more rows, and 7 more variables: X.SampleID <fct>,
#> #   Primer <fct>, Final_Barcode <fct>, Barcode_truncated_plus_T <fct>,
#> #   Barcode_full_length <fct>, SampleType <fct>, Description <fct>
…
